name,value
username,alice
email,alice@example.com
fullname,alice
bio,
joined_at,2018-01-02 01:02:03
ui_language,en
learning_language,fr
lingots,2615
daily_goal,50
timezone,Asia/Tokyo
avatar_url,//simg-ssl.duolingo.com/avatars/012345678/0123456789
previous_email_addresses,
